
/*
 * This file was automatically generated using swig_doc.py.
 *
 * Any changes to it will be lost next time it is regenerated.
 */




%feature("docstring") std::allocator "STL class."

%feature("docstring") std::auto_ptr "STL class."

%feature("docstring") std::auto_ptr::operator-> "STL member.

Params: (NONE)"

%feature("docstring") std::bad_alloc "STL class."

%feature("docstring") std::bad_cast "STL class."

%feature("docstring") std::bad_exception "STL class."

%feature("docstring") std::bad_typeid "STL class."

%feature("docstring") std::basic_fstream "STL class."

%feature("docstring") std::basic_ifstream "STL class."

%feature("docstring") std::basic_ios "STL class."

%feature("docstring") std::basic_iostream "STL class."

%feature("docstring") std::basic_istream "STL class."

%feature("docstring") std::basic_istringstream "STL class."

%feature("docstring") std::basic_ofstream "STL class."

%feature("docstring") std::basic_ostream "STL class."

%feature("docstring") std::basic_ostringstream "STL class."

%feature("docstring") std::basic_string "STL class."

%feature("docstring") std::basic_stringstream "STL class."

%feature("docstring") std::bitset "STL class."

%feature("docstring") std::complex "STL class."

%feature("docstring") std::map::const_iterator "STL iterator class."

%feature("docstring") std::multimap::const_iterator "STL iterator class."

%feature("docstring") std::basic_string::const_iterator "STL iterator class."

%feature("docstring") std::set::const_iterator "STL iterator class."

%feature("docstring") std::multiset::const_iterator "STL iterator class."

%feature("docstring") std::string::const_iterator "STL iterator class."

%feature("docstring") std::vector::const_iterator "STL iterator class."

%feature("docstring") std::wstring::const_iterator "STL iterator class."

%feature("docstring") std::deque::const_iterator "STL iterator class."

%feature("docstring") std::list::const_iterator "STL iterator class."

%feature("docstring") std::deque::const_reverse_iterator "STL iterator class."

%feature("docstring") std::map::const_reverse_iterator "STL iterator class."

%feature("docstring") std::multimap::const_reverse_iterator "STL iterator class."

%feature("docstring") std::set::const_reverse_iterator "STL iterator class."

%feature("docstring") std::basic_string::const_reverse_iterator "STL iterator class."

%feature("docstring") std::multiset::const_reverse_iterator "STL iterator class."

%feature("docstring") std::vector::const_reverse_iterator "STL iterator class."

%feature("docstring") std::string::const_reverse_iterator "STL iterator class."

%feature("docstring") std::wstring::const_reverse_iterator "STL iterator class."

%feature("docstring") std::list::const_reverse_iterator "STL iterator class."

%feature("docstring") std::deque "STL class."

%feature("docstring") std::domain_error "STL class."

%feature("docstring") std::exception "STL class."

%feature("docstring") std::ios_base::failure "STL class."

%feature("docstring") std::fstream "STL class."

%feature("docstring") std::ifstream "STL class."

%feature("docstring") std::invalid_argument "STL class."

%feature("docstring") std::ios "STL class."

%feature("docstring") std::ios_base "STL class."

%feature("docstring") std::istream "STL class."

%feature("docstring") std::istringstream "STL class."

%feature("docstring") std::multiset::iterator "STL iterator class."

%feature("docstring") std::multimap::iterator "STL iterator class."

%feature("docstring") std::set::iterator "STL iterator class."

%feature("docstring") std::basic_string::iterator "STL iterator class."

%feature("docstring") std::vector::iterator "STL iterator class."

%feature("docstring") std::string::iterator "STL iterator class."

%feature("docstring") std::wstring::iterator "STL iterator class."

%feature("docstring") std::map::iterator "STL iterator class."

%feature("docstring") std::deque::iterator "STL iterator class."

%feature("docstring") std::list::iterator "STL iterator class."

%feature("docstring") std::length_error "STL class."

%feature("docstring") std::list "STL class."

%feature("docstring") std::logic_error "STL class."

%feature("docstring") std::map "STL class."

%feature("docstring") std::multimap "STL class."

%feature("docstring") std::multiset "STL class."

%feature("docstring") std::ofstream "STL class."

%feature("docstring") std::ostream "STL class."

%feature("docstring") std::ostringstream "STL class."

%feature("docstring") std::out_of_range "STL class."

%feature("docstring") std::overflow_error "STL class."

%feature("docstring") std::priority_queue "STL class."

%feature("docstring") std::queue "STL class."

%feature("docstring") std::range_error "STL class."

%feature("docstring") std::map::reverse_iterator "STL iterator class."

%feature("docstring") std::multimap::reverse_iterator "STL iterator class."

%feature("docstring") std::multiset::reverse_iterator "STL iterator class."

%feature("docstring") std::basic_string::reverse_iterator "STL iterator class."

%feature("docstring") std::set::reverse_iterator "STL iterator class."

%feature("docstring") std::vector::reverse_iterator "STL iterator class."

%feature("docstring") std::wstring::reverse_iterator "STL iterator class."

%feature("docstring") std::string::reverse_iterator "STL iterator class."

%feature("docstring") std::deque::reverse_iterator "STL iterator class."

%feature("docstring") std::list::reverse_iterator "STL iterator class."

%feature("docstring") std::runtime_error "STL class."

%feature("docstring") std::set "STL class."

%feature("docstring") std::smart_ptr "STL class."

%feature("docstring") std::smart_ptr::operator-> "STL member.

Params: (NONE)"

%feature("docstring") gr::signaldetector::snr_calc "<+description of block+>"

%feature("docstring") gr::signaldetector::snr_calc::make "Return a shared_ptr to a new instance of signaldetector::snr_calc.

To avoid accidental use of raw pointers, signaldetector::snr_calc's constructor is in a private implementation class. signaldetector::snr_calc::make is the public interface for creating new instances.

Params: (NONE)"

%feature("docstring") std::stack "STL class."

%feature("docstring") std::string "STL class."

%feature("docstring") std::stringstream "STL class."

%feature("docstring") std::underflow_error "STL class."

%feature("docstring") std::unique_ptr "STL class."

%feature("docstring") std::unique_ptr::operator-> "STL member.

Params: (NONE)"

%feature("docstring") std::valarray "STL class."

%feature("docstring") std::vector "STL class."

%feature("docstring") std::weak_ptr "STL class."

%feature("docstring") std::weak_ptr::operator-> "STL member.

Params: (NONE)"

%feature("docstring") std::wfstream "STL class."

%feature("docstring") std::wifstream "STL class."

%feature("docstring") std::wios "STL class."

%feature("docstring") std::wistream "STL class."

%feature("docstring") std::wistringstream "STL class."

%feature("docstring") std::wofstream "STL class."

%feature("docstring") std::wostream "STL class."

%feature("docstring") std::wostringstream "STL class."

%feature("docstring") std::wstring "STL class."

%feature("docstring") std::wstringstream "STL class."